<?xml version="1.0" standalone="no"?>
<!DOCTYPE svg PUBLIC "-//W3C//DTD SVG 20010904//EN"
 "http://www.w3.org/TR/2001/REC-SVG-20010904/DTD/svg10.dtd">
<svg version="1.0" xmlns="http://www.w3.org/2000/svg"
 width="836.000000pt" height="836.000000pt" viewBox="0 0 836.000000 836.000000"
 preserveAspectRatio="xMidYMid meet">
<metadata>
Created by potrace 1.14, written by Peter Selinger 2001-2017
</metadata>
<g transform="translate(0.000000,836.000000) scale(0.100000,-0.100000)"
fill="#000000" stroke="none">
<path d="M296 4914 c-68 -21 -146 -101 -172 -174 -18 -51 -19 -89 -19 -550 0
-469 1 -498 20 -548 28 -76 73 -125 140 -152 50 -20 67 -22 145 -17 140 10
237 63 294 162 42 71 56 145 56 293 l0 133 -32 -5 c-18 -3 -64 -6 -101 -7 -37
-1 -70 -5 -72 -9 -2 -3 -5 -56 -6 -117 -2 -139 -5 -154 -37 -192 -37 -43 -108
-52 -146 -19 -15 13 -30 37 -34 53 -4 17 -7 221 -7 455 1 375 3 429 18 457 22
42 74 60 128 44 64 -19 77 -53 78 -198 l1 -73 106 0 106 0 -4 128 c-3 120 -6
133 -35 193 -56 112 -142 159 -293 158 -47 0 -107 -7 -134 -15z"/>
<path d="M3477 4896 c-69 -35 -120 -94 -139 -159 -8 -30 -12 -157 -12 -432 0
-451 1 -463 83 -545 59 -58 130 -83 240 -81 156 2 250 51 302 156 29 60 32 76
37 184 2 66 2 126 0 133 -4 10 -31 12 -112 10 l-106 -3 0 -109 c0 -60 -5 -120
-11 -133 -15 -34 -50 -50 -105 -49 -37 0 -53 6 -73 26 l-26 26 -3 374 c-2 229
1 383 7 399 29 75 167 83 200 10 6 -13 11 -62 11 -108 l0 -85 111 0 112 0 -6
103 c-9 174 -56 251 -185 299 -30 12 -75 17 -154 16 -104 0 -114 -2 -171 -32z"/>
<path d="M1063 4912 l-173 -2 0 -685 0 -684 48 5 c26 3 76 8 112 12 l65 7 0
274 c1 264 1 274 20 281 28 10 100 3 133 -12 50 -24 57 -54 62 -290 3 -119 9
-220 13 -225 8 -7 113 -6 155 2 9 2 31 4 49 4 31 1 31 2 22 34 -5 17 -11 120
-14 228 -2 108 -8 214 -14 236 -15 56 -50 105 -92 127 l-36 20 40 30 c23 17
52 54 66 81 24 45 26 63 29 188 4 155 -5 206 -48 266 -66 90 -141 108 -437
103z m205 -203 c45 -16 57 -55 57 -191 0 -103 -2 -120 -21 -145 -25 -34 -72
-52 -139 -52 l-50 -1 1 192 c1 106 2 196 3 201 2 11 114 8 149 -4z"/>
<path d="M1702 4912 l-22 -3 1 -514 c1 -558 3 -587 56 -673 59 -95 199 -134
356 -98 118 28 195 94 233 201 16 45 17 101 19 567 1 363 -2 518 -9 520 -6 2
-54 3 -106 3 l-95 -1 -5 -522 -5 -522 -26 -25 c-18 -19 -40 -28 -76 -32 -43
-4 -54 -2 -79 20 l-29 25 -3 526 c-2 406 -5 526 -15 527 -38 3 -175 4 -195 1z"/>
<path d="M2490 4286 l0 -628 98 5 c53 3 98 6 100 6 1 1 2 200 3 444 0 243 3
435 7 427 3 -8 63 -204 133 -435 l127 -420 116 -1 116 0 0 615 0 616 -97 0
-98 -1 -5 -354 c-5 -351 -5 -354 -22 -300 -9 30 -58 190 -108 355 l-92 300
-139 0 -139 0 0 -629z"/>
<path d="M4121 4905 c-5 -5 -8 -278 -7 -605 l1 -595 113 -3 112 -3 0 265 0
264 118 -1 c64 -1 119 -4 122 -8 3 -4 5 -122 4 -263 l0 -256 35 -1 c20 0 72
-1 116 -2 l80 -2 0 610 0 610 -115 0 -115 0 -1 -250 c-1 -137 -2 -253 -3 -257
-1 -4 -55 -7 -121 -6 l-120 1 -2 256 -3 256 -103 0 c-59 0 -107 -4 -111 -10z"/>
<path d="M4900 4910 c0 -3 62 -186 138 -407 l137 -400 0 -207 c-1 -178 1 -207
15 -210 8 -2 59 -5 113 -6 l97 -1 0 209 c0 199 1 212 26 283 113 320 252 739
246 740 -35 5 -205 3 -208 -3 -8 -12 -146 -471 -151 -500 -3 -16 -8 -28 -12
-28 -4 0 -43 118 -86 263 -43 144 -80 264 -82 267 -6 6 -233 7 -233 0z"/>
<path d="M5770 4912 c-7 -3 -10 -221 -10 -628 l0 -624 78 -1 c42 0 94 -2 115
-3 l37 -3 0 265 0 264 140 -4 140 -5 0 94 0 93 -105 1 c-58 1 -120 2 -137 3
l-33 1 -3 183 -2 182 42 0 c24 1 105 1 181 0 l137 -1 0 91 c0 49 -3 90 -7 91
-22 3 -564 4 -573 1z"/>
<path d="M6454 4911 c-2 -2 -4 -294 -4 -648 l0 -643 23 2 c23 1 221 -11 272
-18 29 -3 198 -15 260 -18 l30 -1 3 97 3 96 -48 6 c-26 3 -106 8 -178 12 -71
3 -132 8 -135 9 -3 2 -5 251 -5 554 l1 551 -31 1 c-110 3 -187 3 -191 0z"/>
<path d="M7153 4912 l-23 -3 0 -668 0 -668 88 -7 c49 -3 98 -8 110 -11 l22 -4
0 679 0 679 -87 3 c-49 2 -98 2 -110 0z"/>
<path d="M7517 4783 c25 -71 77 -219 115 -331 l71 -204 -118 -331 c-64 -183
-119 -342 -122 -353 -5 -20 0 -22 84 -28 48 -4 96 -9 105 -12 14 -4 31 38 103
261 48 146 89 265 93 265 4 0 45 -127 92 -283 l86 -282 54 -7 c129 -16 180
-19 180 -11 0 8 -94 308 -200 638 l-41 130 115 338 115 337 -107 0 -107 0 -79
-245 c-44 -135 -83 -245 -87 -245 -4 0 -10 12 -13 28 -4 15 -39 125 -77 245
l-70 217 -119 0 -118 0 45 -127z"/>
</g>
</svg>
